Modern Causal Mediation Analysis - 6 Some R packages for estimation of the causal (in)direct effects
…
Code
# load and examine data
data(weight_behavior)
dim(weight_behavior)

[1] 691  15

Code
# drop missing values
weight_behavior <- weight_behavior %>%
  drop_na() %>%
  as_tibble()
weight_behavior

# A tibble: 567 × 15
     bmi   age sex   race  numpeople   car gotosch snack tvhours cmpthours
   <dbl> <dbl> <fct> <fct>     <int> <int> <fct>   <fct>   <dbl>     <dbl>
 1  18.2  12.2 F     OTHER         5     3 2       1           4         0
 2  22.8  12.8 M     OTHER         4     3 2       1           4         2
 3  25.6  12.1 M     OTHER         2     3 2       1           0         2
 4  15.1  12.3 M     OTHER         4     1 2       1           2         1
 5  23.0  11.8 M     OTHER         4     1 1       1           4         3
 6  19.2  12.1 F     OTHER         3     3 2       1           0         0
 7  16.6  12.4 M     OTHER         5     3 1       1           0         0
 8  22.1  11.9 F     OTHER         5     2 2       1           3         4
 9  15.9  12.4 F     OTHER         4     3 2       2           0         0
10  18.6  12.7 M     OTHER         5     3 2       1           0         0
# ℹ 557 more rows
# ℹ 5 more variables: cellhours <dbl>, sports <fct>, exercises <int>,
#   sweat <int>, overweigh <dbl>
…
